%YAML 1.1
%TAG !u! tag:unity3d.com,2011:
--- !u!114 &11400000
MonoBehaviour:
  m_ObjectHideFlags: 0
  m_CorrespondingSourceObject: {fileID: 0}
  m_PrefabInstance: {fileID: 0}
  m_PrefabAsset: {fileID: 0}
  m_GameObject: {fileID: 0}
  m_Enabled: 1
  m_EditorHideFlags: 0
  m_Script: {fileID: 11500000, guid: 08f3073477d60224d8d3fd748d5bd690, type: 3}
  m_Name: Settings
  m_EditorClassIdentifier: 
  MusicClip: {fileID: 8300000, guid: 7dfcdafb5393eaa40a8ef4f3ccbf2c01, type: 3}
  PizzaSpawnDelay: 5
  PizzaSpawnBlockTimer: 1
  PizzaScore: 10
